%YAML 1.1
%TAG !u! tag:unity3d.com,2011:
--- !u!1045 &1
EditorBuildSettings:
  m_ObjectHideFlags: 0
  serializedVersion: 2
  m_Scenes:
  - enabled: 1
    path: Assets/Assets/Scenes/Start Menu.unity
    guid: 334fe9b7d8ce323478db0a689556c988
  - enabled: 1
    path: Assets/Assets/Scenes/Level 1.unity
    guid: 5aab9192c23caee4bb131a53267f1dfb
  - enabled: 1
    path: Assets/Assets/Scenes/Level 2.unity
    guid: 767bb4ee8fdf1b0418f9ffdad1187f23
  - enabled: 1
    path: Assets/Assets/Scenes/Level 3.unity
    guid: ccfb2fe95660e894cb8ca5860321cddb
  - enabled: 1
    path: Assets/Assets/Scenes/Game Over.unity
    guid: 30106868e4f8c69468a399eadb7d7cc2
  m_configObjects: {}
